Slowniki_do_analizy_sentymentu__Biden.R
…
# Sprawdzenie najczęściej występujących słów
# które rzeczywiście odzwierciedlają treść

# Analiza sentymentu ----

# Analiza sentymentu przy użyciu słownika Loughran ----

# Użycie inner_join()
tidy_tokeny %>%
  inner_join(get_sentiments("loughran"), relationship = "many-to-many")

## Joining with `by = join_by(word)`

## # A tibble: 150 × 3
##     freq word       sentiment   
##    <dbl> <chr>      <chr>       
##  1     6 against    negative    
##  2     6 nearly     uncertainty 
##  3     5 commitment constraining
##  4     5 crisis     negative    
##  5     5 good       positive    
##  6     5 violence   negative    
##  7     5 win        positive    
##  8     5 worst      negative    
##  9     4 crisis     negative    
## 10     4 justice    litigious   
## # ℹ 140 more rows
…
# Zliczanie, które słowa są najczęstsze
# dla danego sentymentu
sentiment_review %>%
  count(word, sentiment) %>%
  arrange(desc(n))

## # A tibble: 131 × 3
##    word        sentiment       n
##    <chr>       <chr>       <int>
##  1 crisis      negative        3
##  2 best        positive        2
##  3 better      positive        2
##  4 conflict    negative        2
##  5 cut         negative        2
##  6 good        positive        2
##  7 justice     litigious       2
##  8 lost        negative        2
##  9 opportunity positive        2
## 10 possibility uncertainty     2
## # ℹ 121 more rows
…
# Zliczanie, które słowa są najczęstsze
# dla danego sentymentu
sentiment_review_nrc %>%
  count(word, sentiment) %>%
  arrange(desc(n))

## # A tibble: 749 × 3
##    word      sentiment        n
##    <chr>     <chr>        <int>
##  1 nation    trust            5
##  2 time      anticipation     5
##  3 long      anticipation     4
##  4 congress  disgust          3
##  5 congress  trust            3
##  6 crisis    negative         3
##  7 democracy positive         3
##  8 economy   trust            3
##  9 gun       anger            3
## 10 gun       fear             3
## # ℹ 739 more rows
…
## # A tibble: 2 × 2
##   sentiment     n
##   <chr>     <int>
## 1 negative     99
## 2 positive    126

# Zliczanie, które słowa są najczęstsze
# dla danego sentymentu
sentiment_review_bing %>%
  count(word, sentiment) %>%
  arrange(desc(n))

## # A tibble: 191 × 3
##    word     sentiment     n
##    <chr>    <chr>     <int>
##  1 crisis   negative      3
##  2 hard     negative      3
##  3 reform   positive      3
##  4 right    positive      3
##  5 work     positive      3
##  6 anger    negative      2
##  7 benefits positive      2
##  8 best     positive      2
##  9 better   positive      2
## 10 cancer   negative      2
## # ℹ 181 more rows
…
# Zliczanie, które słowa są najczęstsze
# dla danego sentymentu
sentiment_review_afinn %>%
  count(word, value) %>%
  arrange(desc(n))

## # A tibble: 181 × 3
##    word     value     n
##    <chr>    <dbl> <int>
##  1 care         2     3
##  2 crisis      -3     3
##  3 gun         -1     3
##  4 hard        -1     3
##  5 hope         2     3
##  6 alone       -2     2
##  7 anger       -3     2
##  8 attacked    -1     2
##  9 benefits     2     2
## 10 best         3     2
## # ℹ 171 more rows
…
