Slowniki_do_analizy_sentymentu__Biden-1-.R
…
# Sprawdzenie najczęściej występujących słów
# które rzeczywiście odzwierciedlają treść

# Analiza sentymentu ----

# Analiza sentymentu przy użyciu słownika Loughran ----

# Użycie inner_join()
tidy_tokeny %>%
  inner_join(get_sentiments("loughran"), relationship = "many-to-many")

## Joining with `by = join_by(word)`

## # A tibble: 177 × 3
##     freq word    sentiment  
##    <dbl> <chr>   <chr>      
##  1    13 cut     negative   
##  2    10 law     litigious  
##  3     8 good    positive   
##  4     6 against negative   
##  5     6 great   positive   
##  6     5 able    positive   
##  7     5 believe uncertainty
##  8     5 could   uncertainty
##  9     5 crisis  negative   
## 10     5 defend  negative   
## # ℹ 167 more rows
…
# Zliczanie, które słowa są najczęstsze
# dla danego sentymentu
sentiment_review %>%
  count(word, sentiment) %>%
  arrange(desc(n))

## # A tibble: 144 × 3
##    word          sentiment       n
##    <chr>         <chr>       <int>
##  1 against       negative        3
##  2 crisis        negative        3
##  3 great         positive        3
##  4 law           litigious       3
##  5 optimistic    positive        3
##  6 possibilities uncertainty     3
##  7 risk          uncertainty     3
##  8 best          positive        2
##  9 better        positive        2
## 10 break         negative        2
## # ℹ 134 more rows
…
# Zliczanie, które słowa są najczęstsze
# dla danego sentymentu
sentiment_review_nrc %>%
  count(word, sentiment) %>%
  arrange(desc(n))

## # A tibble: 924 × 3
##    word      sentiment        n
##    <chr>     <chr>        <int>
##  1 congress  disgust          4
##  2 congress  trust            4
##  3 president positive         4
##  4 president trust            4
##  5 time      anticipation     4
##  6 career    anticipation     3
##  7 career    positive         3
##  8 crisis    negative         3
##  9 democracy positive         3
## 10 dignity   positive         3
## # ℹ 914 more rows
…
## # A tibble: 2 × 2
##   sentiment     n
##   <chr>     <int>
## 1 negative    118
## 2 positive    140

# Zliczanie, które słowa są najczęstsze
# dla danego sentymentu
sentiment_review_bing %>%
  count(word, sentiment) %>%
  arrange(desc(n))

## # A tibble: 208 × 3
##    word       sentiment     n
##    <chr>      <chr>     <int>
##  1 right      positive      5
##  2 crisis     negative      3
##  3 dignity    positive      3
##  4 educated   positive      3
##  5 fair       positive      3
##  6 great      positive      3
##  7 optimistic positive      3
##  8 risk       negative      3
##  9 wealthy    positive      3
## 10 welcome    positive      3
## # ℹ 198 more rows
…
# Zliczanie, które słowa są najczęstsze
# dla danego sentymentu
sentiment_review_afinn %>%
  count(word, value) %>%
  arrange(desc(n))

## # A tibble: 219 × 3
##    word       value     n
##    <chr>      <dbl> <int>
##  1 no            -1     4
##  2 crisis        -3     3
##  3 fair           2     3
##  4 great          3     3
##  5 optimistic     2     3
##  6 risk          -2     3
##  7 stop          -1     3
##  8 want           1     3
##  9 wealthy        2     3
## 10 welcome        2     3
## # ℹ 209 more rows
…
